// Jest Snapshot v1, https://goo.gl/fbAQLP

exports[`when have data renders 1`] = `
<DocumentFragment>
  <section
    data-testid="freqDisplay"
  >
    <h2
      class="title is-2"
    >
      Results
    </h2>
    <div>
      <table
        class="table is-hoverable is-halfwidth"
      >
        <tbody>
          <tr>
            <td>
              Input String:
            </td>
            <td
              class="input-string"
            >
              xxyyzzZ
            </td>
          </tr>
          <tr>
            <td>
              First Non-Repeated Character:
            </td>
            <td
              class="non-repeat"
            />
          </tr>
          <tr>
            <td>
              Least Frequent Character:
            </td>
            <td
              class="least-char"
            >
              x
            </td>
          </tr>
          <tr>
            <td>
              Scrambled:
            </td>
            <td
              class="scrambled"
            >
              zzZxxyy
            </td>
          </tr>
        </tbody>
      </table>
      <div
        class="ambiguous-requirements"
      >
        No characters appear in the input string only once. In fact, the minimum frequency is 2.
        <br />
        <br />
        The requirements were ambiguous on handling no singletons and the business owner was not available for clarification. I went with allowing strings with a minimum character occurance value greater than one. Once the ambiguity is cleared up, it can be fixed and this message removed rather quickly.
        <br />
        <br />
        Such is the beauty of CI/CD and automated deployment.
      </div>
    </div>
  </section>
</DocumentFragment>
`;
